Google Transit data across London boroughs
…
Grab borough-level data for Greater London:

london_dat <- dat %>%
  filter(sub_region_1 == "Greater London") %>%
  filter(sub_region_2 != "")

london_dat %>%
  group_by(sub_region_2) %>%
  tally()

## # A tibble: 33 x 2
##    sub_region_2                               n
##    <chr>                                  <int>
##  1 City of London                           382
##  2 City of Westminster                      382
##  3 London Borough of Barking and Dagenham   382
##  4 London Borough of Barnet                 382
##  5 London Borough of Bexley                 382
##  6 London Borough of Brent                  382
##  7 London Borough of Bromley                382
##  8 London Borough of Camden                 382
##  9 London Borough of Croydon                382
## 10 London Borough of Ealing                 382
## # ... with 23 more rows
…
